<?xml version="1.0" standalone="no"?>
<!DOCTYPE svg PUBLIC "-//W3C//DTD SVG 20010904//EN"
 "http://www.w3.org/TR/2001/REC-SVG-20010904/DTD/svg10.dtd">
<svg version="1.0" xmlns="http://www.w3.org/2000/svg"
 width="512.000000pt" height="512.000000pt" viewBox="0 0 512.000000 512.000000"
 preserveAspectRatio="xMidYMid meet">

<g transform="translate(0.000000,512.000000) scale(0.100000,-0.100000)"
fill="#000000" stroke="none">
<path d="M1785 5114 c-499 -48 -886 -226 -1220 -559 -248 -249 -420 -549 -504
-880 -76 -300 -76 -649 0 -950 152 -605 619 -1120 1204 -1328 611 -218 1273
-123 1789 256 58 43 70 49 80 36 6 -8 352 -387 768 -841 479 -522 768 -830
787 -838 45 -18 98 -5 138 35 27 27 33 40 33 77 -1 23 -6 53 -13 65 -7 12
-343 383 -747 824 -404 441 -747 816 -762 834 l-27 31 61 70 c234 269 397 627
449 989 17 116 17 414 0 530 -61 418 -248 793 -546 1090 -291 291 -660 479
-1060 541 -92 14 -357 25 -430 18z m375 -269 c374 -61 675 -213 934 -471 317
-318 486 -725 486 -1174 0 -449 -169 -856 -486 -1174 -318 -317 -725 -486
-1174 -486 -449 0 -856 169 -1174 486 -317 318 -486 725 -486 1174 0 449 169
856 486 1174 317 316 717 483 1164 485 96 1 191 -5 250 -14z"/>
</g>
</svg>
